…
It is good practice to check whether a new function is working as
intended by running some examples.

``` r
#Example 1: Vancouver Trees

#In the first example, I will demonstrate how to use the function to group by multiple variables and filter by a condition in the vancouver_trees dataset. I will group by neighbourhood name and height range and specify the condition to be date planted > 2000-01-01 to find the number of trees in each neighbourhood for each height range that were planted after 2000-01-01.

count_by_groups_filter_by_condition(df=vancouver_trees, c(neighbourhood_name, genus_name), cond= date_planted >"2000-01-01")
```

    ## `summarise()` has grouped output by 'neighbourhood_name'. You can override
    ## using the `.groups` argument.

    ## # A tibble: 906 × 3
    ## # Groups:   neighbourhood_name [22]
    ##    neighbourhood_name genus_name         n
    ##    <chr>              <chr>          <int>
    ##  1 ARBUTUS-RIDGE      ACER             357
    ##  2 ARBUTUS-RIDGE      AESCULUS           9
    ##  3 ARBUTUS-RIDGE      AMELANCHIER       14
    ##  4 ARBUTUS-RIDGE      CALOCEDRUS         1
    ##  5 ARBUTUS-RIDGE      CARPINUS         128
    ##  6 ARBUTUS-RIDGE      CEDRUS             4
    ##  7 ARBUTUS-RIDGE      CELTIS             4
    ##  8 ARBUTUS-RIDGE      CERCIDIPHYLLUM    63
    ##  9 ARBUTUS-RIDGE      CORNUS            25
    ## 10 ARBUTUS-RIDGE      CRATAEGUS        105
    ## # ℹ 896 more rows
…
